5.7 Grouped summaries with summarize() | R for Data Science Book Club
…
## [1] 328521

# [1] 328521

Use summarize() and group_by() to calculate values for each group.

# group flights by year, month and day to get daily flights
by_day <- group_by(flights, year, month, day)

# calculate mean departure delay for each day
summarize(by_day, delay = mean(dep_delay, na.rm = TRUE))

## `summarise()` has grouped output by 'year', 'month'. You can override using the `.groups` argument.

## # A tibble: 365 × 4
## # Groups:   year, month [12]
##     year month   day delay
##    <int> <int> <int> <dbl>
##  1  2013     1     1 11.5 
##  2  2013     1     2 13.9 
##  3  2013     1     3 11.0 
##  4  2013     1     4  8.95
##  5  2013     1     5  5.73
##  6  2013     1     6  7.15
##  7  2013     1     7  5.42
##  8  2013     1     8  2.55
##  9  2013     1     9  2.28
## 10  2013     1    10  2.84
## # … with 355 more rows

5.7.1 Combining multiple operations with the pipe

Use pipe %>% to perform multiple operations on a data set. Do step 1, and then do step 2…

pipe makes code more readable.

# groyup flights by day, and then calculate mean departure delay for each day
flights %>%
  group_by(year, month, day) %>%
  summarize(delay = mean(dep_delay, na.rm = TRUE))

## `summarise()` has grouped output by 'year', 'month'. You can override using the `.groups` argument.

## # A tibble: 365 × 4
## # Groups:   year, month [12]
##     year month   day delay
##    <int> <int> <int> <dbl>
##  1  2013     1     1 11.5 
##  2  2013     1     2 13.9 
##  3  2013     1     3 11.0 
##  4  2013     1     4  8.95
##  5  2013     1     5  5.73
##  6  2013     1     6  7.15
##  7  2013     1     7  5.42
##  8  2013     1     8  2.55
##  9  2013     1     9  2.28
## 10  2013     1    10  2.84
## # … with 355 more rows
…
#  get  flights that were not cancelled
not_cancelled <- flights %>%
  filter(!is.na(dep_delay), !is.na(arr_delay))

# group flights by tail number, and then calculate mean arrival delay and number of not canceled flights for each tail number
delays <- not_cancelled %>%
  group_by(tailnum) %>%
  summarize(
    delay = mean(arr_delay, na.rm = TRUE),
    n = n()
  )

delays

## # A tibble: 4,037 × 3
##    tailnum  delay     n
##    <chr>    <dbl> <int>
##  1 D942DN  31.5       4
##  2 N0EGMQ   9.98    352
##  3 N10156  12.7     145
##  4 N102UW   2.94     48
##  5 N103US  -6.93     46
##  6 N104UW   1.80     46
##  7 N10575  20.7     269
##  8 N105UW  -0.267    45
##  9 N107US  -5.73     41
## 10 N108UW  -1.25     60
## # … with 4,027 more rows
…
Measures of rank: min(x), quantile(x, 0.25), max(x)

Measures of position: first(x), nth(x, 2), last(x).

Counts: n() returns the size of the current group. sum(!is.na(x)) returns the number of non-missing values. n_distinct(x) returns the number of unique values.

count() is a shortcut for group_by() and summarize() to return count by group.

# count the number of flights per destination
not_cancelled %>%
  group_by(dest) %>%
  summarize(n = n())

## # A tibble: 104 × 2
##    dest      n
##    <chr> <int>
##  1 ABQ     254
##  2 ACK     264
##  3 ALB     418
##  4 ANC       8
##  5 ATL   16837
##  6 AUS    2411
##  7 AVL     261
##  8 BDL     412
##  9 BGR     358
## 10 BHM     269
## # … with 94 more rows

# count the number of flights per destination
not_cancelled %>%
  count(dest)

## # A tibble: 104 × 2
##    dest      n
##    <chr> <int>
##  1 ABQ     254
##  2 ACK     264
##  3 ALB     418
##  4 ANC       8
##  5 ATL   16837
##  6 AUS    2411
##  7 AVL     261
##  8 BDL     412
##  9 BGR     358
## 10 BHM     269
## # … with 94 more rows

use sort=TRUE with count() to sort the counts

# count the number of flights per destination, and sort the results
not_cancelled %>%
  count(dest, sort=TRUE)

## # A tibble: 104 × 2
##    dest      n
##    <chr> <int>
##  1 ATL   16837
##  2 ORD   16566
##  3 LAX   16026
##  4 BOS   15022
##  5 MCO   13967
##  6 CLT   13674
##  7 SFO   13173
##  8 FLL   11897
##  9 MIA   11593
## 10 DCA    9111
## # … with 94 more rows

optionally provide a weight variable to get a sum of that variable.

# get the total number of miles planes flew for each destination
not_cancelled %>%
  count(dest, wt = distance)

## # A tibble: 104 × 2
##    dest         n
##    <chr>    <dbl>
##  1 ABQ     463804
##  2 ACK      52536
##  3 ALB      59774
##  4 ANC      26960
##  5 ATL   12747938
##  6 AUS    3650862
##  7 AVL     152323
##  8 BDL      47792
##  9 BGR     135324
## 10 BHM     232953
## # … with 94 more rows
…
sum(FALSE)
# [1] 0
sum(5 < 0)
# [1] 0

Counts and proportions of logical values: sum(x) gives the number of TRUEs, and mean(x) gives the proportion of TRUEs.

#  number of flight per day delayed by more than an 60 minutes
not_cancelled %>%
  group_by(year, month, day) %>%
  summarize(hour_count = sum(arr_delay > 60))

## `summarise()` has grouped output by 'year', 'month'. You can override using the `.groups` argument.

## # A tibble: 365 × 4
## # Groups:   year, month [12]
##     year month   day hour_count
##    <int> <int> <int>      <int>
##  1  2013     1     1         60
##  2  2013     1     2         79
##  3  2013     1     3         51
##  4  2013     1     4         36
##  5  2013     1     5         25
##  6  2013     1     6         39
##  7  2013     1     7         31
##  8  2013     1     8         19
##  9  2013     1     9         18
## 10  2013     1    10         17
## # … with 355 more rows

#  proportion of flights per day delayed by more than an 60 minutes
not_cancelled %>%
  group_by(year, month, day) %>%
  summarize(hour_prop = mean(arr_delay > 60))

## `summarise()` has grouped output by 'year', 'month'. You can override using the `.groups` argument.

## # A tibble: 365 × 4
## # Groups:   year, month [12]
##     year month   day hour_prop
##    <int> <int> <int>     <dbl>
##  1  2013     1     1    0.0722
##  2  2013     1     2    0.0851
##  3  2013     1     3    0.0567
##  4  2013     1     4    0.0396
##  5  2013     1     5    0.0349
##  6  2013     1     6    0.0470
##  7  2013     1     7    0.0333
##  8  2013     1     8    0.0213
##  9  2013     1     9    0.0202
## 10  2013     1    10    0.0183
## # … with 355 more rows

5.7.4 Grouping by multiple variables

progressively rolling up summaries for sums and counts

# group flights by day
daily <- group_by(flights, year, month, day)

# number flights per day
(per_day <- summarize(daily, flights = n()))

## `summarise()` has grouped output by 'year', 'month'. You can override using the `.groups` argument.

## # A tibble: 365 × 4
## # Groups:   year, month [12]
##     year month   day flights
##    <int> <int> <int>   <int>
##  1  2013     1     1     842
##  2  2013     1     2     943
##  3  2013     1     3     914
##  4  2013     1     4     915
##  5  2013     1     5     720
##  6  2013     1     6     832
##  7  2013     1     7     933
##  8  2013     1     8     899
##  9  2013     1     9     902
## 10  2013     1    10     932
## # … with 355 more rows
…
