14.4 Tools | R for Data Science Book Club
…
# On average, how many vowels per word?
mean(str_count(words, "[aeiou]"))

## [1] 1.991837

It’s natural to use str_count() with mutate():

df %>% 
  mutate(
    vowels = str_count(word, "[aeiou]"),
    consonants = str_count(word, "[^aeiou]")
  )

## # A tibble: 980 × 4
##    word         i vowels consonants
##    <chr>    <int>  <int>      <int>
##  1 a            1      1          0
##  2 able         2      2          2
##  3 about        3      3          2
##  4 absolute     4      4          4
##  5 accept       5      2          4
##  6 account      6      3          4
##  7 achieve      7      4          3
##  8 across       8      2          4
##  9 act          9      1          2
## 10 active      10      3          3
## # … with 970 more rows
…
(Unsurprisingly, our heuristic for detecting nouns is poor, and also picks up adjectives like smooth and parked.)

If your data is in a tibble, it’s often easier to use tidyr::extract(). It works like str_match() but requires you to name the matches, which are then placed in new columns.

tibble(sentence = sentences) %>% 
  tidyr::extract(
    sentence, c("article", "noun"), "(a|the) ([^ ]+)", 
    remove = FALSE
  )

## # A tibble: 720 × 3
##    sentence                                    article noun   
##    <chr>                                       <chr>   <chr>  
##  1 The birch canoe slid on the smooth planks.  the     smooth 
##  2 Glue the sheet to the dark blue background. the     sheet  
##  3 It's easy to tell the depth of a well.      the     depth  
##  4 These days a chicken leg is a rare dish.    a       chicken
##  5 Rice is often served in round bowls.        <NA>    <NA>   
##  6 The juice of lemons makes fine punch.       <NA>    <NA>   
##  7 The box was thrown beside the parked truck. the     parked 
##  8 The hogs were fed chopped corn and garbage. <NA>    <NA>   
##  9 Four hours of steady work faced us.         <NA>    <NA>   
## 10 Large size in stockings is hard to sell.    <NA>    <NA>   
## # … with 710 more rows
…
